{
  "runtimeTarget": {
    "name": ".NETStandard,Version=v2.0/",
    "signature": "ba8bd8f155b82453fb664fb3b81c8adc674f6fe0"
  },
  "compilationOptions": {},
  "targets": {
    ".NETStandard,Version=v2.0": {},
    ".NETStandard,Version=v2.0/": {
      "Wedly/1.0.0": {
        "dependencies": {
          "NETStandard.Library": "2.0.3",
          "Newtonsoft.Json": "11.0.2",
          "PCLStorage": "1.0.2",
          "Plugin.FirebasePushNotification": "2.3.5",
          "Xam.Plugin.Connectivity": "3.2.0",
          "Xamarin.Forms": "3.0.0.482510",
          "sqlite-net-pcl": "1.5.231"
        },
        "runtime": {
          "Wedly.dll": {}
        }
      },
      "Microsoft.Bcl/1.1.6": {
        "dependencies": {
          "Microsoft.Bcl.Build": "1.0.10"
        }
      },
      "Microsoft.Bcl.Async/1.0.165": {
        "dependencies": {
          "Microsoft.Bcl": "1.1.6"
        },
        "runtime": {
          "lib/net45/Microsoft.Threading.Tasks.Extensions.dll": {
            "assemblyVersion": "1.0.12.0",
            "fileVersion": "1.0.165.0"
          },
          "lib/net45/Microsoft.Threading.Tasks.dll": {
            "assemblyVersion": "1.0.12.0",
            "fileVersion": "1.0.165.0"
          }
        }
      },
      "Microsoft.Bcl.Build/1.0.10": {},
      "Microsoft.NETCore.Platforms/1.1.0": {},
      "NETStandard.Library/2.0.3": {
        "dependencies": {
          "Microsoft.NETCore.Platforms": "1.1.0"
        }
      },
      "Newtonsoft.Json/11.0.2": {
        "runtime": {
          "lib/netstandard2.0/Newtonsoft.Json.dll": {
            "assemblyVersion": "11.0.0.0",
            "fileVersion": "11.0.2.21924"
          }
        }
      },
      "PCLStorage/1.0.2": {
        "dependencies": {
          "Microsoft.Bcl": "1.1.6",
          "Microsoft.Bcl.Async": "1.0.165"
        },
        "runtime": {
          "lib/net45/PCLStorage.Abstractions.dll": {
            "assemblyVersion": "1.0.2.0",
            "fileVersion": "1.0.2.0"
          },
          "lib/net45/PCLStorage.dll": {
            "assemblyVersion": "1.0.2.0",
            "fileVersion": "1.0.2.0"
          }
        }
      },
      "Plugin.FirebasePushNotification/2.3.5": {
        "dependencies": {
          "NETStandard.Library": "2.0.3"
        },
        "runtime": {
          "lib/netstandard1.0/Plugin.FirebasePushNotification.Abstractions.dll": {
            "assemblyVersion": "1.0.0.0",
            "fileVersion": "1.0.0.0"
          },
          "lib/netstandard1.0/Plugin.FirebasePushNotification.dll": {
            "assemblyVersion": "1.0.0.0",
            "fileVersion": "1.0.0.0"
          }
        }
      },
      "sqlite-net-pcl/1.5.231": {
        "dependencies": {
          "NETStandard.Library": "2.0.3",
          "SQLitePCLRaw.bundle_green": "1.1.11"
        },
        "runtime": {
          "lib/netstandard1.1/SQLite-net.dll": {
            "assemblyVersion": "1.5.231.0",
            "fileVersion": "1.5.231.0"
          }
        }
      },
      "SQLitePCLRaw.bundle_green/1.1.11": {
        "dependencies": {
          "NETStandard.Library": "2.0.3",
          "SQLitePCLRaw.core": "1.1.11"
        },
        "runtime": {
          "lib/netstandard1.1/SQLitePCLRaw.batteries_green.dll": {
            "assemblyVersion": "1.1.11.121",
            "fileVersion": "1.0.0.0"
          },
          "lib/netstandard1.1/SQLitePCLRaw.batteries_v2.dll": {
            "assemblyVersion": "1.1.11.121",
            "fileVersion": "1.0.0.0"
          }
        }
      },
      "SQLitePCLRaw.core/1.1.11": {
        "dependencies": {
          "NETStandard.Library": "2.0.3"
        },
        "runtime": {
          "lib/netstandard1.1/SQLitePCLRaw.core.dll": {
            "assemblyVersion": "1.1.11.121",
            "fileVersion": "1.0.0.0"
          }
        }
      },
      "Xam.Plugin.Connectivity/3.2.0": {
        "dependencies": {
          "NETStandard.Library": "2.0.3"
        },
        "runtime": {
          "lib/netstandard1.0/Plugin.Connectivity.Abstractions.dll": {
            "assemblyVersion": "3.2.0.0",
            "fileVersion": "3.2.0.0"
          },
          "lib/netstandard1.0/Plugin.Connectivity.dll": {
            "assemblyVersion": "3.2.0.0",
            "fileVersion": "3.2.0.0"
          }
        }
      },
      "Xamarin.Forms/3.0.0.482510": {
        "runtime": {
          "lib/netstandard2.0/Xamarin.Forms.Core.dll": {
            "assemblyVersion": "2.0.0.0",
            "fileVersion": "2.0.0.0"
          },
          "lib/netstandard2.0/Xamarin.Forms.Platform.dll": {
            "assemblyVersion": "1.0.0.0",
            "fileVersion": "1.0.0.0"
          },
          "lib/netstandard2.0/Xamarin.Forms.Xaml.dll": {
            "assemblyVersion": "2.0.0.0",
            "fileVersion": "2.0.0.0"
          }
        }
      }
    }
  },
  "libraries": {
    "Wedly/1.0.0": {
      "type": "project",
      "serviceable": false,
      "sha512": ""
    },
    "Microsoft.Bcl/1.1.6": {
      "type": "package",
      "serviceable": true,
      "sha512": "sha512-gQU52SY/AyzDhJ2HWGD1ieEbZgofkyhMKtKVyF33FokHfmESXh+9F6E+CdZ6/XlXEQMa+fqBdXBrKQeuM8X9nA==",
      "path": "microsoft.bcl/1.1.6",
      "hashPath": "microsoft.bcl.1.1.6.nupkg.sha512"
    },
    "Microsoft.Bcl.Async/1.0.165": {
      "type": "package",
      "serviceable": true,
      "sha512": "sha512-LbWuEY3s7MeQROW8WH4vNKNR/6XhG+mCZsDdOlXygNsZzMX98dt2Z64WhOSL22dN9AK9m8dipnvoK+m3CujMuw==",
      "path": "microsoft.bcl.async/1.0.165",
      "hashPath": "microsoft.bcl.async.1.0.165.nupkg.sha512"
    },
    "Microsoft.Bcl.Build/1.0.10": {
      "type": "package",
      "serviceable": true,
      "sha512": "sha512-JpazBBc/JT6o76Gx2q3mxJlGHfv2gK+GTzaJ+PZjf2XNGQOcajNU4PKJqc0udRwmPunZP5GrMhiWUuDVkabh+A==",
      "path": "microsoft.bcl.build/1.0.10",
      "hashPath": "microsoft.bcl.build.1.0.10.nupkg.sha512"
    },
    "Microsoft.NETCore.Platforms/1.1.0": {
      "type": "package",
      "serviceable": true,
      "sha512": "sha512-bLpT1f/SFlO1CzqXG12KnJzpZs6lv24uX2Rzi4Fmm0noJpNlnWRVryuO3yK18Ca04t/YHcO1e1Z0WDfjseqNzw==",
      "path": "microsoft.netcore.platforms/1.1.0",
      "hashPath": "microsoft.netcore.platforms.1.1.0.nupkg.sha512"
    },
    "NETStandard.Library/2.0.3": {
      "type": "package",
      "serviceable": true,
      "sha512": "sha512-st47PosZSHrjECdjeIzZQbzivYBJFv6P2nv4cj2ypdI204DO+vZ7l5raGMiX4eXMJ53RfOIg+/s4DHVZ54Nu2A==",
      "path": "netstandard.library/2.0.3",
      "hashPath": "netstandard.library.2.0.3.nupkg.sha512"
    },
    "Newtonsoft.Json/11.0.2": {
      "type": "package",
      "serviceable": true,
      "sha512": "sha512-IvJe1pj7JHEsP8B8J8DwlMEx8UInrs/x+9oVY+oCD13jpLu4JbJU2WCIsMRn5C4yW9+DgkaO8uiVE5VHKjpmdQ==",
      "path": "newtonsoft.json/11.0.2",
      "hashPath": "newtonsoft.json.11.0.2.nupkg.sha512"
    },
    "PCLStorage/1.0.2": {
      "type": "package",
      "serviceable": true,
      "sha512": "sha512-9If+1ZFCk3QaT/asfiL+J9FMnx2CTMrLCU8tDMUOI/aCGWGWl9vJ1/KcMkjf92op23ZknenvYJZBLDAqE3sFlg==",
      "path": "pclstorage/1.0.2",
      "hashPath": "pclstorage.1.0.2.nupkg.sha512"
    },
    "Plugin.FirebasePushNotification/2.3.5": {
      "type": "package",
      "serviceable": true,
      "sha512": "sha512-bLy19B0gO4ZWQxa80ccgCWqktb6v13Vdj/5KBLaepnUdhOg8ejbyGEl7IAkSodipH0etO3Oakj/tqic4GwVqPw==",
      "path": "plugin.firebasepushnotification/2.3.5",
      "hashPath": "plugin.firebasepushnotification.2.3.5.nupkg.sha512"
    },
    "sqlite-net-pcl/1.5.231": {
      "type": "package",
      "serviceable": true,
      "sha512": "sha512-Sy+K+Wm2RZ+4b1uLHsaXvfR92Or71XxPXa2Id6msSOVkZKh+c+PUk/HQOAgxyhm3lhvysL0mK6Gd6mI69NJ9AA==",
      "path": "sqlite-net-pcl/1.5.231",
      "hashPath": "sqlite-net-pcl.1.5.231.nupkg.sha512"
    },
    "SQLitePCLRaw.bundle_green/1.1.11": {
      "type": "package",
      "serviceable": true,
      "sha512": "sha512-Hqp8IF/RLjbypkLm+t+1RqAX8EKuWEkj7wkLXplfENQoPnE127cvTmaDvaQKtt7a5QsD/HNjFDr1z5f9q2wdPg==",
      "path": "sqlitepclraw.bundle_green/1.1.11",
      "hashPath": "sqlitepclraw.bundle_green.1.1.11.nupkg.sha512"
    },
    "SQLitePCLRaw.core/1.1.11": {
      "type": "package",
      "serviceable": true,
      "sha512": "sha512-QT17CyQAQIbTCu6pW5+uVA8BXqRzquiDI1tr5Un6c1YZcQydPmGPuYYng9xMs2UHUDYHbTu+JDkp55WR+qo9bQ==",
      "path": "sqlitepclraw.core/1.1.11",
      "hashPath": "sqlitepclraw.core.1.1.11.nupkg.sha512"
    },
    "Xam.Plugin.Connectivity/3.2.0": {
      "type": "package",
      "serviceable": true,
      "sha512": "sha512-ZV45TaBTCJg7XQNEl3fPyyJcuMMhdDEQ6BCLc/5pMuTv38M226ER0WTu5sbmba8jlliDuzeRqkRFHwrGdWAgyg==",
      "path": "xam.plugin.connectivity/3.2.0",
      "hashPath": "xam.plugin.connectivity.3.2.0.nupkg.sha512"
    },
    "Xamarin.Forms/3.0.0.482510": {
      "type": "package",
      "serviceable": true,
      "sha512": "sha512-kq209d8qVvulrY3o+nGirENZ3kaZpEN7VWRErWcW1M+ahtDgm4BUXQJ5s9hnp1SAGxQMTMhDAVI3uk5g9NV7hA==",
      "path": "xamarin.forms/3.0.0.482510",
      "hashPath": "xamarin.forms.3.0.0.482510.nupkg.sha512"
    }
  }
}