﻿{
  "attendees" : [
    {
      "name" :  "Wakwakwakwak",
      "rsvp" :  1,
      "role" :  "Groom"
    },
    {
      "name": "Nyaknyaknyak",
      "rsvp": 1,
      "role": "Bride"
    },
    {
      "name": "Wkwkwkwk asdd",
      "rsvp": 2,
      "role": "Primary Sponsor"
    },
    {
      "name": "Wkwkwkwk ddsad",
      "rsvp": 3,
      "role": "Secondary Sponsor"
    },
    {
      "name": "Wkwkwkwk ggdf",
      "rsvp": 3,
      "role": "Others"
    },
    {
      "name": "Wkwkwkwk gdaaswe",
      "rsvp": 2,
      "role": "Others"
    },
    {
      "name": "Wkwkwkwk gdsadasd",
      "rsvp": 1,
      "role": "Others"
    },
    {
      "name": "Wkwkwkwk sa23xdasd",
      "rsvp": 3,
      "role": "Others"
    },
    {
      "name": "Wkwkwkwk asd21xd",
      "rsvp": 1,
      "role": "Others"
    },
    {
      "name": "Wkwkwkwk sadsadkjhasdlkhsad",
      "rsvp": 1,
      "role": "Others"
    }
  ],
  "comments": [
    {
      "content": "️❤️❤️❤️❤️❤️"
    },
    {
      "content": "Comment 2 😍"
    },
    {
      "content": "Comment 1"
    },
    {
      "content": "Comment 4"
    },
    {
      "content": "Comment 5"
    },
    {
      "content": "Comment 6"
    }
  ]
}
